"Run","Generation","Best Cost","Worst Cost","Average Cost","Number of evaluations"
"4","0","1236610","1293481","1265910.75","25411"
"4","1","1005931","1037222","1018130.7722772277","51453"
"4","2","869750","894547","880225.6534653465","76555"
"4","3","766275","782927","775233.9009900991","103615"
"4","4","697383","709270","703704.198019802","130481"
"4","5","630700","638269","634804.198019802","156779"
"4","6","580785","587879","584484.9207920792","184677"
"4","7","552926","560492","556985.0693069306","211223"
"4","8","520991","530316","527638.9207920792","237301"
"4","9","490787","499109","495322.37623762374","263945"
"4","10","465336","474229","469102.297029703","292911"
"4","11","446084","451132","448367.1287128713","321603"
"4","12","426807","432667","430231.71287128713","350239"
"4","13","416101","421190","418766.6336633663","379503"
"4","14","403072","407222","404983.61386138614","408253"
"4","15","392706","396048","394534.64356435643","437397"
"4","16","379718","384613","382313.42574257427","466007"
"4","17","370109","373801","372671.85148514854","495273"
"4","18","360769","364226","362975.64356435643","524273"
"4","19","351636","354507","353399.21782178216","552181"
"4","20","342345","345517","343797.28712871287","581553"
"4","21","336579","338594","337745.47524752474","609963"
"4","22","330240","332219","331283.82178217825","639241"
"4","23","322727","325254","323799.58415841585","668545"
"4","24","318090","320356","319537.396039604","697499"
"4","25","312549","315023","313820.50495049503","727179"
"4","26","306939","309057","308173.11881188117","756153"
"4","27","300341","303345","302123.6633663366","786061"
"4","28","295868","297793","297058.198019802","815259"
"4","29","290723","293733","292754.8712871287","844281"
"4","30","286130","288206","287331.099009901","874481"
"4","31","282799","284325","283708.8415841584","903501"
"4","32","277520","279827","278877.82178217825","933949"
"4","33","274652","276121","275430.7623762376","963785"
"4","34","270167","272064","271399.04950495047","993653"
"4","35","264861","267539","266236.0792079208","1023631"
"4","36","260309","261901","261062.82178217822","1054127"
"4","37","255065","257687","256355.26732673266","1085011"
"4","38","251952","253819","253084.0792079208","1115807"
"4","39","248310","249960","249281.28712871287","1146059"
"4","40","243589","246066","245153.0297029703","1176895"
"4","41","240814","242400","241781.15841584158","1207429"
"4","42","237936","239875","239076.34653465348","1237159"
"4","43","234655","237126","236156.13861386137","1266913"
"4","44","231608","233470","232834.1485148515","1299035"
"4","45","228696","230576","229763.42574257427","1329477"
"4","46","225972","227918","227130.23762376237","1360801"
"4","47","223393","224839","224278.099009901","1390333"
"4","48","220039","221708","221065.65346534652","1420675"
"4","49","217431","219049","218519.56435643564","1451225"
"4","50","215288","216715","216148.68316831684","1481457"
"4","51","213386","214905","214167.91089108912","1512225"
"4","52","210334","211990","211377.900990099","1543201"
"4","53","206760","208637","207684.42574257427","1571993"
"4","54","204321","205896","205279.17821782178","1602791"
"4","55","202157","203399","202767.71287128713","1634601"
"4","56","200323","201662","201119.21782178216","1666155"
"4","57","197973","199091","198547.8316831683","1696717"
"4","58","196052","197457","196951.1683168317","1728613"
"4","59","193805","194972","194420.75247524751","1759641"
"4","60","192286","193521","192923.43564356436","1790705"
"4","61","189432","191028","190545.23762376237","1821421"
"4","62","187978","189105","188529.9603960396","1853509"
"4","63","186569","187668","187046.31683168316","1885671"
"4","64","184676","186242","185690.39603960395","1915501"
"4","65","183223","184437","184000.9207920792","1946721"
"4","66","181899","183433","182804.10891089108","1977499"
"4","67","180217","181441","180907.71287128713","2007971"
"4","68","178644","179820","179197.81188118813","2039607"
"4","69","177336","178404","178053.41584158415","2072565"
"4","70","176335","177369","176930.49504950494","2103803"
"4","71","174317","175662","175184.56435643564","2135255"
"4","72","172700","174001","173579.18811881187","2167055"
"4","73","171171","172573","172064.71287128713","2198949"
"4","74","170321","171295","170892.20792079208","2231067"
"4","75","168913","169807","169403.67326732673","2262923"
"4","76","167472","168662","167985.57425742573","2294053"
"4","77","166333","167490","166862.17821782178","2326573"
"4","78","165579","166362","165922.49504950494","2357509"
"4","79","164463","165768","164993.20792079208","2388687"
"4","80","163170","163971","163577.66336633664","2421805"
"4","81","162383","163270","162765.49504950494","2452715"
"4","82","161803","162601","162222.198019802","2485577"
"4","83","160776","161915","161566.56435643564","2519163"
"4","84","158990","160292","159673.0297029703","2549575"
"4","85","157879","158841","158323.77227722772","2582849"
"4","86","156504","157846","157173.26732673266","2615441"
"4","87","155708","156447","156180.58415841585","2648415"
"4","88","155141","155858","155508.69306930693","2681543"
"4","89","153969","155108","154502.40594059406","2713515"
"4","90","153192","153798","153450.60396039605","2745873"
"4","91","152569","153277","152953.91089108912","2778761"
"4","92","151823","152750","152169.34653465348","2811425"
"4","93","150910","151735","151291.67326732673","2843197"
"4","94","149911","150943","150534.67326732673","2875481"
"4","95","149456","150082","149741.35643564357","2907573"
"4","96","148985","149737","149355.44554455444","2939887"
"4","97","148129","149164","148628.1485148515","2973459"
"4","98","147442","148161","147825.74257425743","3008331"
"4","99","146575","147663","147333.801980198","3041501"
"4","100","145935","146718","146400.36633663366","3074869"
"4","101","145048","146044","145603.77227722772","3108807"
"4","102","144461","145188","144855.17821782178","3142653"
"4","103","143990","144851","144550.05940594058","3175817"
"4","104","143251","144088","143560.65346534652","3208561"
"4","105","142679","143694","143115.0495049505","3241187"
"4","106","141583","142786","142074.41584158415","3273737"
"4","107","141040","141901","141386.46534653465","3307349"
"4","108","140490","141316","140932.46534653465","3342111"
"4","109","139743","141000","140510.33663366336","3373555"
"4","110","139352","140208","139779.25742574257","3406513"
"4","111","139025","139673","139272.63366336634","3439787"
"4","112","138302","139324","138961.40594059406","3474211"
"4","113","137665","138300","138081.75247524751","3508863"
"4","114","137443","138094","137739.64356435643","3542111"
"4","115","137011","137727","137311.37623762377","3574825"
"4","116","136405","137102","136803.1485148515","3607987"
"4","117","136196","136795","136484.86138613863","3641881"
"4","118","135688","136334","136048.39603960395","3675491"
"4","119","135350","135992","135546.29702970298","3709013"
"4","120","134874","135679","135285.198019802","3741341"
"4","121","134601","135249","134958.0792079208","3773085"
"4","122","134087","135031","134546.70297029702","3805605"
"4","123","133557","134205","133846.9504950495","3838975"
"4","124","133389","133951","133670.40594059406","3872377"
"4","125","133115","133688","133355.15841584158","3905283"
"4","126","132650","133308","133022.71287128713","3939883"
"4","127","132309","132979","132651.82178217822","3971725"
"4","128","131547","132750","132170.1683168317","4004503"
"4","129","130887","131847","131443.43564356436","4038549"
"4","130","130549","131503","130953.20792079208","4071771"
"4","131","129795","130618","130250.70297029703","4105163"
"4","132","129062","129909","129480.42574257425","4138557"
"4","133","128405","129243","128859.14851485149","4172399"
"4","134","127690","128309","127955.41584158415","4205615"
"4","135","127411","128144","127742.68316831683","4236779"
"4","136","127090","127666","127344.38613861386","4270297"
"4","137","126681","127337","127000.63366336633","4303351"
"4","138","126338","127155","126814.0594059406","4336155"
"4","139","126028","126626","126278.59405940594","4369763"
"4","140","125845","126643","126123.23762376238","4402511"
"4","141","125420","125982","125681.07920792079","4435985"
"4","142","125144","125975","125446.60396039604","4468401"
"4","143","124747","125256","124962.17821782178","4502479"
"4","144","123808","124901","124415.15841584158","4533239"
"4","145","123385","124085","123735.38613861386","4566551"
"4","146","122733","123564","123224.87128712871","4598861"
"4","147","122247","123241","122796.9504950495","4632733"
"4","148","122092","122760","122370.46534653465","4664545"
"4","149","121704","122279","122001.9504950495","4699591"
"4","150","121162","122287","121742.07920792079","4733549"
"4","151","120984","121641","121342.49504950496","4766973"
"4","152","120738","121343","120973.35643564357","4798661"
"4","153","120459","121177","120741.60396039604","4833015"
"4","154","120143","121002","120466.24752475247","4866991"
"4","155","119931","120451","120134.81188118811","4899845"
"4","156","119683","120389","119877.9504950495","4932829"
"4","157","119191","119889","119502.37623762376","4965449"
"4","158","118889","119690","119129.74257425743","4998969"
"4","159","118352","118928","118611.66336633664","5033865"
"4","160","118313","118848","118522.45544554456","5066561"
"4","161","118049","118658","118325.91089108911","5099779"
"4","162","117800","118651","118161.0099009901","5133643"
"4","163","117537","118254","117869.62376237624","5168359"
"4","164","117144","118108","117527.24752475247","5201181"
"4","165","116938","117300","117114.93069306931","5234747"
"4","166","116496","117170","116748.06930693069","5268337"
"4","167","116252","117118","116690.73267326732","5300913"
"4","168","115561","116481","116130.0495049505","5332649"
"4","169","115505","116055","115678.55445544554","5365665"
"4","170","115230","115824","115526.65346534654","5399357"
"4","171","114934","115425","115120.17821782178","5431929"
"4","172","114850","115347","115009.26732673268","5466127"
"4","173","114730","115244","114885.57425742575","5500837"
"4","174","114510","115082","114756.0099009901","5534259"
"4","175","114317","114797","114526.69306930693","5567947"
"4","176","114175","114701","114349.82178217822","5602309"
"4","177","113723","114632","114149.33663366336","5635399"
"4","178","113528","114184","113738.25742574257","5668481"
"4","179","113420","114105","113649.70297029703","5700281"
"4","180","113334","113891","113556.36633663367","5733369"
"4","181","113169","113880","113474.0396039604","5766359"
"4","182","113129","113777","113340.81188118811","5800419"
"4","183","112571","113314","113041.46534653465","5834113"
"4","184","112522","113216","112813.77227722772","5868765"
"4","185","112011","112868","112444.38613861386","5901643"
"4","186","111985","112541","112197.65346534654","5935073"
"4","187","111806","112496","112080.82178217822","5968429"
"4","188","111524","112039","111765.81188118811","6000997"
"4","189","111234","111845","111507.82178217822","6035533"
"4","190","111058","111640","111329.89108910892","6069577"
"4","191","110748","111342","111009.64356435643","6104373"
"4","192","110658","111234","110891.34653465346","6139273"
"4","193","110492","111126","110733.32673267326","6172865"
"4","194","110329","110786","110545.78217821782","6206489"
"4","195","110268","110761","110445.41584158415","6240817"
"4","196","110181","110686","110391.78217821782","6273789"
"4","197","110010","110794","110332.86138613861","6307087"
"4","198","109956","110591","110171.60396039604","6340089"
"4","199","109833","110494","110013.81188118811","6373209"
"4","200","109798","110460","110008.25742574257","6406457"
"4","201","109572","110048","109797.47524752475","6441975"
"4","202","109389","110159","109755.47524752475","6474781"
"4","203","109152","109791","109380.76237623762","6510133"
"4","204","108995","109590","109283.17821782178","6543909"
"4","205","108704","109430","109017.9504950495","6576645"
"4","206","108639","109218","108794.06930693069","6609671"
"4","207","108386","109126","108705.23762376238","6643009"
"4","208","108058","108898","108450.31683168317","6677963"
"4","209","107937","108773","108255.07920792079","6710143"
"4","210","107805","108430","107999.83168316832","6742709"
"4","211","107695","108425","108026.70297029703","6776627"
"4","212","107494","108186","107807.82178217822","6808769"
"4","213","107421","108259","107698.19801980197","6842933"
"4","214","107240","107723","107466.51485148515","6877215"
"4","215","106791","107444","107154.25742574257","6911921"
"4","216","106580","107153","106824.91089108911","6946291"
"4","217","106389","106811","106577.78217821782","6981097"
"4","218","106346","106847","106600.69306930693","7016565"
"4","219","106207","106732","106457.60396039604","7049719"
"4","220","106175","106673","106320.13861386139","7083685"
"4","221","106096","106613","106229.29702970297","7116929"
"4","222","105527","106438","106139.61386138614","7151359"
"4","223","105378","105842","105522.9504950495","7185585"
"4","224","105106","105689","105412.53465346535","7221289"
"4","225","105052","105590","105231.32673267326","7253807"
"4","226","104893","105636","105161.72277227722","7286423"
"4","227","104774","105443","105061.66336633664","7318521"
"4","228","104707","105365","104935.64356435643","7351659"
"4","229","104449","104997","104753.38613861386","7385355"
"4","230","104215","105071","104554.36633663367","7418931"
"4","231","104025","104525","104272.43564356436","7454211"
"4","232","103966","104574","104133.65346534654","7488107"
"4","233","103812","104577","103976.07920792079","7524965"
"4","234","103750","104160","103893.44554455446","7561119"
"4","235","103693","104183","103927.9900990099","7594695"
"4","236","103636","104389","103897.87128712871","7629475"
"4","237","103414","104005","103644.9801980198","7665843"
"4","238","103346","104107","103636.39603960396","7699825"
"4","239","103111","103863","103497.27722772278","7734729"
"4","240","103081","103738","103298.02970297029","7769381"
"4","241","102841","103455","103132.9603960396","7805335"
"4","242","102841","103423","103104.26732673268","7841139"
"4","243","102538","103190","102814.28712871287","7875133"
"4","244","102403","103040","102760.900990099","7909243"
"4","245","102263","102905","102408.32673267326","7943659"
"4","246","102149","102756","102392.0396039604","7978737"
"4","247","102149","102631","102334.70297029703","8013219"
"4","248","102026","102543","102183.10891089108","8047749"
"4","249","101852","102419","102104.52475247525","8081451"
"4","250","101735","102352","102002.06930693069","8114505"
"4","251","101654","102095","101792.33663366336","8150489"
"4","252","101523","102152","101824.75247524753","8184929"
"4","253","101497","102181","101747.20792079208","8220297"
"4","254","101116","101838","101522.63366336633","8254765"
"4","255","100942","101507","101191.55445544554","8288855"
"4","256","100741","101369","101023.9504950495","8322219"
"4","257","100676","101275","100907.9900990099","8355759"
"4","258","100563","101224","100895.39603960396","8390479"
"4","259","100563","101491","100819.56435643564","8423647"
"4","260","100391","100880","100634.21782178218","8459085"
"4","261","100253","100651","100400.58415841585","8494807"
"4","262","100163","100692","100306.52475247525","8532583"
"4","263","100142","100856","100414.97029702971","8565035"
"4","264","100065","100749","100278.79207920792","8597843"
"4","265","99908","100621","100243.38613861386","8630779"
"4","266","99780","100429","100039.70297029703","8665531"
"4","267","99677","100206","99915.38613861386","8701229"
"4","268","99637","100369","99957.9603960396","8734239"
"4","269","99393","100037","99667.37623762376","8768725"
"4","270","99175","99864","99422.77227722772","8802211"
"4","271","99133","100013","99431.07920792079","8835587"
"4","272","99100","99788","99341.0","8867401"
"4","273","99026","99638","99257.78217821782","8902367"
"4","274","98986","99404","99126.26732673268","8936105"
"4","275","98582","99417","99020.76237623762","8970619"
"4","276","98418","98885","98645.54455445544","9005457"
"4","277","98395","98953","98550.56435643564","9039427"
"4","278","98395","98830","98511.57425742575","9075597"
"4","279","98395","98890","98628.38613861386","9111603"
"4","280","98322","98880","98527.97029702971","9147453"
"4","281","98026","98553","98225.17821782178","9182681"
"4","282","98026","98590","98279.21782178218","9217627"
"4","283","97918","98522","98114.51485148515","9252503"
"4","284","97830","98314","98018.9801980198","9288267"
"4","285","97788","98613","98246.43564356436","9322853"
"4","286","97678","98298","97935.39603960396","9357301"
"4","287","97591","98039","97698.28712871287","9393417"
"4","288","97497","97960","97699.9405940594","9427731"
"4","289","97485","98238","97683.9504950495","9462699"
"4","290","97447","97768","97576.30693069307","9499349"
"4","291","97335","97910","97549.10891089108","9534385"
"4","292","97318","97681","97424.14851485149","9569629"
"4","293","97318","97716","97456.45544554456","9605341"
"4","294","97271","97898","97585.92079207921","9639271"
"4","295","97109","97542","97232.55445544554","9674281"
"4","296","97092","97608","97313.66336633664","9709913"
"4","297","97033","97643","97215.24752475247","9743755"
"4","298","97033","97707","97258.93069306931","9778071"
"4","299","96997","97558","97159.86138613861","9812997"
"4","300","96948","97510","97111.20792079208","9848291"
"4","301","96926","97251","97060.85148514851","9884035"
"4","302","96825","97301","97072.59405940594","9918905"
"4","303","96742","97345","96966.56435643564","9953461"
"4","304","96575","97016","96796.54455445544","9986731"
"4","305","96565","97410","96881.85148514851","10020137"
"4","306","96403","97247","96786.79207920792","10055063"
"4","307","96330","97130","96631.51485148515","10088123"
"4","308","96114","96617","96320.72277227722","10124613"
"4","309","96114","96735","96366.75247524753","10159259"
"4","310","96058","96689","96222.07920792079","10193513"
"4","311","96008","96530","96210.47524752475","10228167"
"4","312","95944","96331","96073.60396039604","10264679"
"4","313","95944","96449","96126.54455445544","10300815"
"4","314","95912","96427","96111.0495049505","10335949"
"4","315","95851","96238","96054.59405940594","10371163"
"4","316","95805","96456","95970.65346534654","10405961"
"4","317","95684","96151","95838.9603960396","10441421"
"4","318","95426","96122","95740.91089108911","10475191"
"4","319","95312","95794","95489.25742574257","10508489"
"4","320","95145","95653","95257.59405940594","10542649"
"4","321","95041","95587","95269.18811881189","10578473"
"4","322","95041","95953","95397.0396039604","10609815"
"4","323","95005","95802","95389.78217821782","10642393"
"4","324","94832","95458","95153.66336633664","10678303"
"4","325","94797","95365","94987.900990099","10712589"
"4","326","94740","95166","94929.75247524753","10748733"
"4","327","94701","95153","94846.76237623762","10785139"
"4","328","94654","95286","94867.70297029703","10819605"
"4","329","94642","95124","94868.80198019803","10854073"
"4","330","94595","95140","94783.28712871287","10890435"
"4","331","94457","95013","94664.72277227722","10925403"
"4","332","94426","94879","94568.60396039604","10959745"
"4","333","94365","94907","94626.0495049505","10994519"
"4","334","94365","94950","94556.35643564357","11028457"
"4","335","94365","94871","94622.88118811882","11065051"
"4","336","94343","94908","94609.42574257425","11097579"
"4","337","94343","94845","94553.45544554456","11132753"
"4","338","94343","95071","94666.15841584158","11166873"
"4","339","94120","94651","94433.36633663367","11201149"
"4","340","93907","94473","94108.11881188118","11236677"
"4","341","93782","94249","93952.59405940594","11271529"
"4","342","93734","94118","93881.12871287129","11307331"
"4","343","93712","94130","93860.10891089108","11343265"
"4","344","93675","94157","93765.54455445544","11380467"
"4","345","93651","94021","93811.86138613861","11417281"
"4","346","93637","94024","93727.0","11452377"
"4","347","93533","93897","93676.57425742575","11488677"
"4","348","93476","94172","93635.10891089108","11523677"
"4","349","93453","93895","93607.44554455446","11559533"
"4","350","93409","93908","93547.76237623762","11594995"
"4","351","93404","93958","93626.9405940594","11629491"
"4","352","93357","94025","93652.18811881189","11664087"
"4","353","93307","94067","93595.52475247525","11697959"
"4","354","93307","93789","93474.44554455446","11734157"
"4","355","93251","93517","93322.66336633664","11769423"
"4","356","93104","93498","93200.64356435643","11804969"
"4","357","92912","93661","93308.37623762376","11839803"
"4","358","92891","93247","93022.54455445544","11874673"
"4","359","92825","93324","92982.92079207921","11910621"
"4","360","92825","93326","92983.11881188118","11944179"
"4","361","92825","93313","93027.12871287129","11978749"
"4","362","92478","92836","92600.14851485149","12012995"
"4","363","92439","93000","92615.50495049504","12048025"
"4","364","92380","92994","92672.0495049505","12081853"
"4","365","92296","92859","92568.55445544554","12117591"
"4","366","92268","92708","92394.57425742575","12154731"
"4","367","92268","92729","92466.82178217822","12193141"
"4","368","92268","92588","92378.35643564357","12230559"
"4","369","92221","92659","92408.33663366336","12266329"
"4","370","92139","92652","92325.55445544554","12303115"
"4","371","92139","92714","92353.35643564357","12338850"
"4","372","92135","92817","92381.0594059406","12373378"
"4","373","92038","92495","92192.9405940594","12410442"
"4","374","91951","92341","92128.45544554456","12444608"
"4","375","91928","92349","92118.12871287129","12481782"
"4","376","91872","92472","92027.49504950496","12517894"
"4","377","91812","92175","91917.39603960396","12554506"
"4","378","91812","92197","91910.25742574257","12593588"
"4","379","91812","92345","92022.74257425743","12630476"
"4","380","91812","92107","91920.35643564357","12667694"
"4","381","91812","92314","91930.20792079208","12706752"
"4","382","91774","92206","91920.43564356436","12743312"
"4","383","91682","92048","91858.47524752475","12779856"
"4","384","91682","92382","91987.51485148515","12814384"
"4","385","91545","92047","91754.84158415842","12850464"
"4","386","91518","92016","91726.9801980198","12885328"
"4","387","91485","91858","91627.26732673268","12921730"
"4","388","91485","92035","91682.21782178218","12957646"
"4","389","91485","91811","91616.88118811882","12994476"
"4","390","91342","91926","91522.41584158415","13029490"
"4","391","91322","91765","91433.63366336633","13066526"
"4","392","91322","91781","91484.91089108911","13103786"
"4","393","91322","91716","91476.53465346535","13141696"
"4","394","91274","91812","91477.50495049504","13177946"
"4","395","91274","91757","91463.76237623762","13215004"
"4","396","91198","91648","91345.35643564357","13249542"
"4","397","91144","91681","91267.25742574257","13286474"
"4","398","91066","91404","91180.70297029703","13324836"
"4","399","91026","91640","91176.65346534654","13360418"
"4","400","91026","91474","91194.57425742575","13397230"
"4","401","90957","91506","91218.56435643564","13432588"
"4","402","90843","91486","91038.51485148515","13469830"
"4","403","90805","91275","90924.07920792079","13507694"
"4","404","90805","91193","90943.70297029703","13544836"
"4","405","90762","91081","90845.83168316832","13582688"
"4","406","90714","91085","90859.33663366336","13619370"
"4","407","90714","91148","90839.58415841585","13655120"
"4","408","90714","91033","90795.31683168317","13691144"
"4","409","90690","91008","90797.69306930693","13727884"
"4","410","90672","91080","90799.20792079208","13765650"
"4","411","90672","91293","90933.68316831683","13801594"
"4","412","90620","91153","90797.85148514851","13837136"
"4","413","90535","91214","90717.63366336633","13871322"
"4","414","90535","91200","90805.21782178218","13905596"
"4","415","90442","91061","90680.65346534654","13939498"
"4","416","90431","91035","90690.59405940594","13973752"
"4","417","90400","90786","90496.48514851485","14009174"
"4","418","90397","90795","90513.900990099","14046206"
"4","419","90373","90850","90511.66336633664","14083520"
"4","420","90373","90902","90488.39603960396","14118372"
"4","421","90373","90776","90478.34653465346","14155246"
"4","422","90319","90716","90459.82178217822","14192906"
"4","423","90245","90568","90350.65346534654","14229632"
"4","424","90132","90483","90231.78217821782","14264472"
"4","425","90074","90376","90200.88118811882","14301594"
"4","426","90074","90537","90267.83168316832","14338212"
"4","427","90074","90512","90233.900990099","14373420"
"4","428","89761","90173","89903.16831683168","14409226"
"4","429","89747","90087","89813.0198019802","14447736"
"4","430","89747","90044","89836.50495049504","14484412"
"4","431","89662","89985","89750.900990099","14522514"
"4","432","89635","90001","89734.33663366336","14560874"
"4","433","89620","89918","89696.61386138614","14597858"
"4","434","89620","90045","89732.79207920792","14636358"
"4","435","89609","89976","89718.08910891089","14673992"
"4","436","89603","89855","89656.9900990099","14712618"
"4","437","89595","89828","89658.54455445544","14751004"
"4","438","89547","89809","89608.30693069307","14788168"
"4","439","89517","89780","89599.77227722772","14827478"
"4","440","89500","89755","89579.83168316832","14866944"
"4","441","89500","89808","89583.73267326732","14904316"
"4","442","89483","89755","89541.36633663367","14941286"
"4","443","89414","89753","89527.40594059406","14979820"
"4","444","89387","89715","89465.58415841585","15017724"
"4","445","89343","89589","89453.9405940594","15056308"
"4","446","89293","89718","89482.16831683168","15094426"
"4","447","89219","89518","89332.13861386139","15132332"
"4","448","89200","89540","89285.0198019802","15170326"
"4","449","89200","89472","89312.77227722772","15209138"
"4","450","89089","89516","89250.56435643564","15246072"
"4","451","89089","89523","89219.93069306931","15282652"
"4","452","89089","89483","89287.07920792079","15320012"
"4","453","89073","89344","89174.14851485149","15356942"
"4","454","89008","89335","89107.0198019802","15393436"
"4","455","88906","89429","89086.77227722772","15428990"
"4","456","88887","89291","88992.83168316832","15466942"
"4","457","88883","89168","88928.66336633664","15504886"
"4","458","88883","89180","88938.64356435643","15545448"
"4","459","88831","89173","88898.10891089108","15584196"
"4","460","88801","89035","88863.30693069307","15624752"
"4","461","88801","88967","88847.0594059406","15665242"
"4","462","88777","89073","88832.58415841585","15703912"
"4","463","88771","88890","88806.74257425743","15742666"
"4","464","88754","89019","88832.30693069307","15782256"
"4","465","88746","89252","88885.54455445544","15819850"
"4","466","88642","89062","88816.49504950496","15858266"
"4","467","88642","89126","88811.77227722772","15896466"
"4","468","88595","89090","88721.15841584158","15932448"
"4","469","88530","88952","88664.0","15967932"
"4","470","88529","88880","88624.39603960396","16003260"
"4","471","88493","88810","88599.73267326732","16041674"
"4","472","88492","88700","88546.80198019803","16080258"
"4","473","88482","88649","88524.19801980197","16121178"
"4","474","88458","88667","88500.56435643564","16162790"
"4","475","88170","88645","88471.07920792079","16202966"
"4","476","88137","88418","88223.61386138614","16242148"
"4","477","88120","88383","88166.33663366336","16280490"
"4","478","88120","88320","88168.63366336633","16320738"
"4","479","88108","88506","88197.68316831683","16359822"
"4","480","88097","88301","88133.97029702971","16398068"
"4","481","88044","88298","88121.51485148515","16437362"
"4","482","88044","88318","88105.17821782178","16476226"
"4","483","88023","88331","88114.70297029703","16514114"
"4","484","88023","88312","88084.88118811882","16553076"
"4","485","88002","88275","88058.9900990099","16593358"
"4","486","88002","88314","88070.29702970297","16631458"
"4","487","88002","88174","88053.24752475247","16670374"
"4","488","87994","88340","88042.0","16708516"
"4","489","87975","88220","88021.31683168317","16748186"
"4","490","87975","88245","88016.23762376238","16787754"
"4","491","87975","88169","88002.59405940594","16826272"
"4","492","87975","88155","88015.06930693069","16865894"
"4","493","87968","88228","88005.25742574257","16903080"
"4","494","87968","88217","88003.92079207921","16942718"
"4","495","87964","88125","87987.79207920792","16982510"
"4","496","87941","88123","87970.22772277228","17024254"
"4","497","87941","88352","88005.53465346535","17063040"
"4","498","87937","88222","87975.58415841585","17103504"
"4","499","87935","88219","87975.45544554456","17142672"
"4","500","87810","88125","87952.25742574257","17182696"
"4","501","87793","88192","87963.60396039604","17222284"
"4","502","87793","88209","87923.21782178218","17259906"
"4","503","87793","88056","87882.80198019803","17298116"
"4","504","87793","88089","87881.67326732674","17333982"
"4","505","87793","88211","87944.76237623762","17370022"
"4","506","87793","88119","87855.84158415842","17407466"
"4","507","87765","88106","87853.47524752475","17446736"
"4","508","87765","88151","87872.75247524753","17483880"
"4","509","87667","88060","87787.51485148515","17521208"
"4","510","87655","88015","87803.10891089108","17558018"
"4","511","87655","88067","87775.58415841585","17595792"
"4","512","87641","88011","87759.14851485149","17632990"
"4","513","87637","88061","87841.89108910892","17670648"
"4","514","87637","88146","87757.53465346535","17706886"
"4","515","87637","87991","87720.56435643564","17745094"
"4","516","87609","87973","87727.31683168317","17783912"
"4","517","87609","87851","87677.92079207921","17823738"
"4","518","87609","88021","87733.08910891089","17862120"
"4","519","87609","87967","87667.099009901","17899144"
"4","520","87609","87841","87672.84158415842","17937406"
"4","521","87596","87748","87632.89108910892","17976696"
"4","522","87551","87909","87653.16831683168","18016872"
"4","523","87551","87956","87639.099009901","18054718"
"4","524","87532","88050","87644.61386138614","18091580"
"4","525","87532","87863","87611.02970297029","18130662"
"4","526","87532","87826","87586.81188118811","18168326"
"4","527","87520","87959","87641.65346534654","18206288"
"4","528","87490","87740","87559.73267326732","18245724"
"4","529","87482","87731","87525.21782178218","18283432"
"4","530","87473","87681","87500.78217821782","18321464"
"4","531","87473","87739","87499.19801980197","18362010"
"4","532","87471","87629","87483.46534653465","18401244"
"4","533","87471","87666","87478.12871287129","18436198"
"4","534","87467","87566","87476.34653465346","18473114"
"4","535","87466","87556","87471.16831683168","18502360"
"4","536","87453","87532","87466.77227722772","18541172"
"4","537","87452","87582","87461.0396039604","18582672"
"4","538","87452","87598","87460.24752475247","18622956"
"4","539","87443","87527","87457.44554455446","18664532"
"4","540","87391","87644","87419.44554455446","18706240"
"4","541","87391","87503","87407.41584158415","18746738"
"4","542","87391","87476","87398.29702970297","18785152"
"4","543","87391","87457","87398.30693069307","18822108"
"4","544","87391","87575","87397.78217821782","18855682"
"4","545","87391","87494","87393.32673267326","18882950"
"4","546","87322","87483","87391.099009901","18906196"
"4","547","87322","87437","87339.88118811882","18938088"
"4","548","87322","87398","87324.83168316832","18959818"
"4","549","87322","87418","87325.33663366336","18978162"
"4","550","87322","87391","87323.63366336633","18989598"
"4","551","87322","87379","87323.07920792079","18999034"
"4","552","87322","87391","87322.68316831683","19002168"
"4","553","87322","87391","87322.68316831683","19006682"
"4","554","87322","87334","87322.11881188118","19010512"
"4","555","87322","87322","87322.0","19013696"
"4","556","87322","87322","87322.0","19014948"
"4","557","87322","87322","87322.0","19016302"
"4","558","87322","87322","87322.0","19017412"
"4","559","87322","87322","87322.0","19018522"
"4","560","87322","87322","87322.0","19019632"
"4","561","87322","87322","87322.0","19020742"
"4","562","87322","87322","87322.0","19021852"
"4","563","87322","87322","87322.0","19022962"
"4","564","87322","87510","87323.86138613861","19025062"
"4","565","87322","87322","87322.0","19026172"
"4","566","87322","87322","87322.0","19027282"
"4","567","87322","87322","87322.0","19028392"
"4","568","87322","87322","87322.0","19029502"
"4","569","87322","87322","87322.0","19030612"
"4","570","87322","87322","87322.0","19031722"
"4","571","87322","87322","87322.0","19032832"
"4","572","87322","87322","87322.0","19033942"
"4","573","87322","87322","87322.0","19035052"
"4","574","87322","87322","87322.0","19036162"
"4","575","87322","87322","87322.0","19037272"
"4","576","87322","87322","87322.0","19038382"
"4","577","87322","87322","87322.0","19039492"
"4","578","87322","87322","87322.0","19040602"
"4","579","87322","87322","87322.0","19041712"
"4","580","87322","87322","87322.0","19042822"
"4","581","87322","87322","87322.0","19043932"
"4","582","87322","87322","87322.0","19045042"
"4","583","87322","87322","87322.0","19046152"
"4","584","87322","87322","87322.0","19047262"
"4","585","87322","87322","87322.0","19048372"
"4","586","87322","87322","87322.0","19049482"
"4","587","87322","87322","87322.0","19050592"
"4","588","87322","87322","87322.0","19051702"
"4","589","87322","87322","87322.0","19052812"
"4","590","87322","87322","87322.0","19053922"
"4","591","87322","87322","87322.0","19055032"
"4","592","87322","87322","87322.0","19056142"
"4","593","87322","87322","87322.0","19057252"
"4","594","87322","87322","87322.0","19058362"
"4","595","87322","87322","87322.0","19059472"
"4","596","87322","87322","87322.0","19060582"
"4","597","87322","87322","87322.0","19061692"
"4","598","87322","87322","87322.0","19062802"
"4","599","87322","87322","87322.0","19063912"
"4","600","87322","87322","87322.0","19065022"
"4","601","87322","87322","87322.0","19066132"
"4","602","87322","87322","87322.0","19067242"
"4","603","87322","87322","87322.0","19068352"
"4","604","87322","87322","87322.0","19069462"
"4","605","87322","87322","87322.0","19070572"
"4","606","87322","87322","87322.0","19071682"
"4","607","87322","87322","87322.0","19072792"
"4","608","87322","87322","87322.0","19073902"
"4","609","87322","87322","87322.0","19075012"
"4","610","87322","87322","87322.0","19076122"
"4","611","87322","87322","87322.0","19077232"
"4","612","87322","87322","87322.0","19078342"
"4","613","87322","87322","87322.0","19079452"
"4","614","87322","87322","87322.0","19080562"
"4","615","87322","87322","87322.0","19081672"
"4","616","87322","87322","87322.0","19082782"
"4","617","87322","87322","87322.0","19083892"
"4","618","87322","87322","87322.0","19085002"
"4","619","87322","87322","87322.0","19086112"
"4","620","87322","87322","87322.0","19087222"
"4","621","87322","87322","87322.0","19088332"
"4","622","87322","87322","87322.0","19089442"
"4","623","87322","87322","87322.0","19090552"
"4","624","87322","87322","87322.0","19091662"
"4","625","87322","87322","87322.0","19092772"
"4","626","87322","87322","87322.0","19093882"
"4","627","87322","87322","87322.0","19094992"
"4","628","87322","87322","87322.0","19096102"
"4","629","87322","87322","87322.0","19097212"
"4","630","87322","87322","87322.0","19098322"
"4","631","87322","87322","87322.0","19099432"
"4","632","87322","87322","87322.0","19100542"
"4","633","87322","87322","87322.0","19101652"
"4","634","87322","87322","87322.0","19102762"
"4","635","87322","87322","87322.0","19103872"
"4","636","87322","87322","87322.0","19104982"
"4","637","87322","87322","87322.0","19106092"
"4","638","87322","87322","87322.0","19107202"
"4","639","87322","87322","87322.0","19108312"
"4","640","87322","87322","87322.0","19109422"
"4","641","87322","87322","87322.0","19110532"
"4","642","87322","87322","87322.0","19111642"
"4","643","87322","87322","87322.0","19112752"
"4","644","87322","87322","87322.0","19113862"
"4","645","87322","87322","87322.0","19114972"
"4","646","87303","87322","87320.68316831683","19118412"
"4","647","87303","87322","87308.56435643564","19143342"
"4","648","87303","87322","87303.82178217822","19161338"
"4","649","87303","87453","87304.52475247525","19171188"
"4","650","87303","87355","87303.900990099","19178418"
"4","651","87303","87303","87303.0","19181858"
"4","652","87303","87303","87303.0","19183842"
"4","653","87303","87367","87303.63366336633","19186662"
"4","654","87303","87322","87303.18811881189","19190322"
"4","655","87303","87303","87303.0","19192706"
"4","656","87303","87303","87303.0","19193870"
"4","657","87303","87303","87303.0","19195248"
"4","658","87303","87303","87303.0","19196542"
"4","659","87303","87303","87303.0","19197652"
"4","660","87303","87303","87303.0","19198762"
"4","661","87303","87303","87303.0","19199872"
"4","662","87303","87303","87303.0","19200982"
"4","663","87303","87303","87303.0","19202092"
"4","664","87303","87303","87303.0","19203202"
"4","665","87303","87303","87303.0","19204312"
"4","666","87303","87303","87303.0","19205422"
"4","667","87303","87303","87303.0","19206532"
"4","668","87303","87303","87303.0","19207642"
"4","669","87303","87303","87303.0","19208752"
"4","670","87303","87303","87303.0","19209862"
"4","671","87303","87303","87303.0","19210972"
"4","672","87303","87303","87303.0","19212082"
"4","673","87303","87303","87303.0","19213192"
"4","674","87303","87303","87303.0","19214302"
"4","675","87303","87303","87303.0","19215412"
"4","676","87303","87303","87303.0","19216522"
"4","677","87303","87303","87303.0","19217632"
"4","678","87303","87303","87303.0","19218742"
"4","679","87303","87303","87303.0","19219852"
"4","680","87303","87303","87303.0","19220962"
"4","681","87303","87303","87303.0","19222072"
"4","682","87303","87303","87303.0","19223182"
"4","683","87303","87303","87303.0","19224292"
"4","684","87303","87303","87303.0","19225402"
"4","685","87303","87303","87303.0","19226512"
"4","686","87303","87303","87303.0","19227622"
"4","687","87303","87303","87303.0","19228732"
"4","688","87303","87303","87303.0","19229842"
"4","689","87303","87303","87303.0","19230952"
"4","690","87303","87303","87303.0","19232062"
"4","691","87303","87303","87303.0","19233172"
"4","692","87303","87303","87303.0","19234282"
"4","693","87303","87303","87303.0","19235392"
"4","694","87303","87303","87303.0","19236502"
"4","695","87303","87303","87303.0","19237612"
"4","696","87303","87303","87303.0","19238722"
"4","697","87303","87303","87303.0","19239832"
"4","698","87303","87303","87303.0","19240942"
"4","699","87303","87303","87303.0","19242052"
"4","700","87303","87303","87303.0","19243162"
"4","701","87303","87303","87303.0","19244272"
"4","702","87303","87303","87303.0","19245382"
"4","703","87303","87303","87303.0","19246492"
"4","704","87303","87303","87303.0","19247602"
"4","705","87303","87303","87303.0","19248712"
"4","706","87303","87303","87303.0","19249822"
"4","707","87303","87303","87303.0","19250932"
"4","708","87303","87303","87303.0","19252042"
"4","709","87303","87303","87303.0","19253152"
"4","710","87303","87303","87303.0","19254262"
"4","711","87303","87303","87303.0","19255372"
"4","712","87303","87303","87303.0","19256482"
"4","713","87303","87303","87303.0","19257592"
"4","714","87303","87303","87303.0","19258702"
"4","715","87303","87303","87303.0","19259812"
"4","716","87303","87303","87303.0","19260922"
"4","717","87301","87303","87302.56435643564","19268124"
"4","718","87301","87303","87301.29702970297","19292066"
"4","719","87301","87429","87304.0495049505","19309248"
"4","720","87301","87301","87301.0","19315314"
"4","721","87301","87301","87301.0","19322478"
"4","722","87301","87301","87301.0","19325282"
"4","723","87301","87301","87301.0","19329310"
"4","724","87301","87301","87301.0","19332796"
"4","725","87301","87301","87301.0","19335630"
"4","726","87301","87301","87301.0","19338832"
"4","727","87301","87301","87301.0","19341880"
"4","728","87301","87301","87301.0","19342990"
"4","729","87301","87301","87301.0","19344750"
"4","730","87301","87301","87301.0","19345860"
"4","731","87301","87301","87301.0","19346970"
"4","732","87301","87301","87301.0","19348246"
"4","733","87301","87301","87301.0","19349356"
"4","734","87301","87301","87301.0","19350966"
"4","735","87301","87301","87301.0","19352076"
"4","736","87301","87301","87301.0","19353186"
"4","737","87301","87301","87301.0","19354296"
"4","738","87301","87301","87301.0","19355406"
"4","739","87301","87301","87301.0","19356516"
"4","740","87301","87301","87301.0","19357626"
"4","741","87301","87301","87301.0","19358736"
"4","742","87301","87301","87301.0","19359846"
"4","743","87301","87301","87301.0","19360956"
"4","744","87301","87301","87301.0","19362066"
"4","745","87301","87301","87301.0","19363176"
"4","746","87301","87301","87301.0","19364286"
"4","747","87301","87301","87301.0","19365396"
"4","748","87301","87301","87301.0","19366506"
"4","749","87301","87301","87301.0","19367616"
"4","750","87301","87301","87301.0","19368726"
"4","751","87301","87301","87301.0","19369836"
"4","752","87301","87301","87301.0","19370946"
"4","753","87301","87301","87301.0","19372056"
"4","754","87301","87301","87301.0","19373166"
"4","755","87301","87301","87301.0","19374276"
"4","756","87301","87301","87301.0","19375386"
"4","757","87301","87301","87301.0","19376496"
"4","758","87301","87301","87301.0","19377606"
"4","759","87301","87301","87301.0","19378716"
"4","760","87301","87301","87301.0","19379826"
"4","761","87301","87301","87301.0","19380936"
"4","762","87301","87301","87301.0","19382046"
"4","763","87301","87301","87301.0","19383156"
"4","764","87301","87301","87301.0","19384266"
"4","765","87301","87301","87301.0","19385376"
"4","766","87301","87301","87301.0","19386486"
"4","767","87301","87301","87301.0","19387596"
"4","768","87301","87301","87301.0","19388705"
"4","769","87301","87301","87301.0","19389815"
"4","770","87301","87301","87301.0","19390925"
"4","771","87301","87301","87301.0","19392035"
"4","772","87301","87301","87301.0","19393145"
"4","773","87301","87301","87301.0","19394255"
"4","774","87301","87301","87301.0","19395365"
"4","775","87301","87301","87301.0","19396475"
"4","776","87301","87301","87301.0","19397585"
"4","777","87301","87301","87301.0","19398695"
"4","778","87301","87301","87301.0","19399805"
"4","779","87301","87301","87301.0","19400915"
"4","780","87301","87301","87301.0","19402025"
"4","781","87301","87301","87301.0","19403135"
"4","782","87301","87301","87301.0","19404245"
"4","783","87301","87301","87301.0","19405355"
"4","784","87301","87301","87301.0","19406465"
"4","785","87301","87301","87301.0","19407575"
"4","786","87301","87301","87301.0","19408685"
"4","787","87301","87301","87301.0","19409795"
"4","788","87301","87301","87301.0","19410905"
"4","789","87301","87301","87301.0","19412015"
"4","790","87301","87301","87301.0","19413125"
"4","791","87301","87301","87301.0","19414235"
"4","792","87301","87301","87301.0","19415345"
"4","793","87301","87301","87301.0","19416455"
"4","794","87301","87301","87301.0","19417565"
"4","795","87301","87301","87301.0","19418675"
"4","796","87301","87301","87301.0","19419785"
"4","797","87301","87301","87301.0","19420895"
"4","798","87301","87301","87301.0","19422005"
"4","799","87301","87301","87301.0","19423115"
"4","800","87301","87301","87301.0","19424225"
"4","801","87301","87301","87301.0","19425335"
"4","802","87301","87301","87301.0","19426445"
"4","803","87301","87301","87301.0","19427555"
"4","804","87301","87301","87301.0","19428665"
"4","805","87301","87301","87301.0","19429775"
"4","806","87301","87301","87301.0","19430885"
"4","807","87301","87301","87301.0","19431995"
"4","808","87301","87301","87301.0","19433105"
"4","809","87301","87301","87301.0","19434215"
"4","810","87301","87301","87301.0","19435325"
"4","811","87301","87301","87301.0","19436435"
"4","812","87301","87301","87301.0","19437545"
"4","813","87301","87301","87301.0","19438655"
"4","814","87301","87301","87301.0","19439765"
"4","815","87301","87301","87301.0","19440875"
"4","816","87285","87301","87300.68316831683","19442073"
"4","817","87285","87326","87294.60396039604","19458511"
"4","818","87285","87301","87285.56435643564","19473223"
"4","819","87285","87301","87285.41584158415","19485845"
"4","820","87285","87301","87285.29702970297","19493031"
"4","821","87285","87285","87285.0","19496813"
"4","822","87285","87285","87285.0","19498397"
"4","823","87285","87285","87285.0","19500195"
"4","824","87285","87285","87285.0","19502745"
"4","825","87285","87296","87285.10891089108","19507463"
"4","826","87285","87285","87285.0","19508573"
"4","827","87285","87285","87285.0","19509683"
"4","828","87285","87285","87285.0","19510935"
"4","829","87285","87285","87285.0","19512045"
"4","830","87285","87285","87285.0","19513155"
"4","831","87285","87285","87285.0","19514265"
"4","832","87285","87285","87285.0","19515375"
"4","833","87285","87285","87285.0","19516485"
"4","834","87285","87285","87285.0","19517595"
"4","835","87285","87285","87285.0","19518705"
"4","836","87285","87285","87285.0","19519815"
"4","837","87285","87285","87285.0","19520925"
"4","838","87285","87285","87285.0","19522035"
"4","839","87285","87285","87285.0","19523145"
"4","840","87285","87285","87285.0","19524255"
"4","841","87285","87285","87285.0","19525365"
"4","842","87285","87285","87285.0","19526475"
"4","843","87285","87285","87285.0","19527585"
"4","844","87285","87285","87285.0","19528695"
"4","845","87285","87285","87285.0","19529805"
"4","846","87285","87285","87285.0","19530915"
"4","847","87285","87285","87285.0","19532025"
"4","848","87285","87285","87285.0","19533135"
"4","849","87285","87285","87285.0","19534245"
"4","850","87285","87285","87285.0","19535355"
"4","851","87285","87285","87285.0","19536465"
"4","852","87285","87285","87285.0","19537575"
"4","853","87285","87285","87285.0","19538685"
"4","854","87285","87285","87285.0","19539795"
"4","855","87285","87285","87285.0","19540905"
"4","856","87285","87285","87285.0","19542015"
"4","857","87285","87285","87285.0","19543125"
"4","858","87285","87285","87285.0","19544235"
"4","859","87285","87285","87285.0","19545345"
"4","860","87285","87285","87285.0","19546455"
"4","861","87285","87285","87285.0","19547565"
"4","862","87285","87285","87285.0","19548675"
"4","863","87285","87285","87285.0","19549785"
"4","864","87285","87285","87285.0","19550895"
"4","865","87285","87285","87285.0","19552005"
"4","866","87285","87285","87285.0","19553115"
"4","867","87285","87285","87285.0","19554225"
"4","868","87285","87285","87285.0","19555335"
"4","869","87285","87285","87285.0","19556445"
"4","870","87285","87285","87285.0","19557555"
"4","871","87285","87285","87285.0","19558665"
"4","872","87285","87285","87285.0","19559775"
"4","873","87285","87285","87285.0","19560885"
"4","874","87285","87285","87285.0","19561995"
"4","875","87285","87285","87285.0","19563105"
"4","876","87285","87285","87285.0","19564215"
"4","877","87285","87285","87285.0","19565325"
"4","878","87285","87285","87285.0","19566435"
"4","879","87285","87285","87285.0","19567545"
"4","880","87285","87285","87285.0","19568655"
"4","881","87285","87285","87285.0","19569765"
"4","882","87285","87285","87285.0","19570875"
"4","883","87285","87285","87285.0","19571985"
"4","884","87285","87285","87285.0","19573095"
"4","885","87285","87285","87285.0","19574205"
"4","886","87285","87285","87285.0","19575315"
"4","887","87285","87285","87285.0","19576425"
"4","888","87285","87285","87285.0","19577535"
"4","889","87285","87285","87285.0","19578645"
"4","890","87285","87285","87285.0","19579755"
"4","891","87285","87285","87285.0","19580865"
"4","892","87285","87285","87285.0","19581975"
"4","893","87285","87285","87285.0","19583085"
"4","894","87285","87285","87285.0","19584195"
"4","895","87285","87285","87285.0","19585305"
"4","896","87285","87285","87285.0","19586415"
"4","897","87285","87285","87285.0","19587525"
"4","898","87285","87285","87285.0","19588635"
"4","899","87285","87285","87285.0","19589745"
"4","900","87285","87285","87285.0","19590855"
"4","901","87285","87285","87285.0","19591965"
"4","902","87285","87285","87285.0","19593075"
"4","903","87285","87285","87285.0","19594185"
"4","904","87285","87285","87285.0","19595295"
"4","905","87285","87285","87285.0","19596405"
"4","906","87285","87285","87285.0","19597515"
"4","907","87285","87285","87285.0","19598625"
"4","908","87285","87285","87285.0","19599735"
"4","909","87285","87285","87285.0","19600845"
"4","910","87285","87285","87285.0","19601955"
"4","911","87285","87285","87285.0","19603065"
"4","912","87285","87285","87285.0","19604175"
"4","913","87285","87285","87285.0","19605285"
"4","914","87285","87285","87285.0","19606395"
"4","915","87285","87285","87285.0","19607505"
"4","916","87285","87285","87285.0","19608615"
"4","917","87285","87285","87285.0","19609725"
"4","918","87285","87285","87285.0","19610835"
"4","919","87285","87285","87285.0","19611945"
"4","920","87285","87285","87285.0","19613055"
"4","921","87285","87285","87285.0","19614165"
"4","922","87285","87285","87285.0","19615275"
"4","923","87285","87285","87285.0","19616385"
"4","924","87285","87285","87285.0","19617495"
"4","925","87285","87285","87285.0","19618605"
"4","926","87285","87285","87285.0","19619715"
"4","927","87285","87285","87285.0","19620825"
"4","928","87285","87285","87285.0","19621935"
"4","929","87285","87285","87285.0","19623045"
"4","930","87285","87285","87285.0","19624155"
"4","931","87285","87285","87285.0","19625265"
"4","932","87285","87285","87285.0","19626375"
"4","933","87285","87285","87285.0","19627485"
"4","934","87285","87285","87285.0","19628595"
"4","935","87285","87285","87285.0","19629705"
"4","936","87285","87285","87285.0","19630815"
"4","937","87285","87285","87285.0","19631925"
"4","938","87285","87285","87285.0","19633035"
"4","939","87285","87285","87285.0","19634145"
"4","940","87285","87285","87285.0","19635255"
"4","941","87285","87285","87285.0","19636365"
"4","942","87285","87285","87285.0","19637475"
"4","943","87285","87285","87285.0","19638585"
"4","944","87285","87285","87285.0","19639695"
"4","945","87285","87285","87285.0","19640805"
"4","946","87285","87285","87285.0","19641915"
"4","947","87285","87285","87285.0","19643025"
"4","948","87285","87285","87285.0","19644135"
"4","949","87285","87285","87285.0","19645245"
"4","950","87285","87285","87285.0","19646355"
"4","951","87285","87285","87285.0","19647465"
"4","952","87285","87285","87285.0","19648575"
"4","953","87285","87285","87285.0","19649685"
"4","954","87285","87285","87285.0","19650795"
"4","955","87285","87285","87285.0","19651905"
"4","956","87285","87285","87285.0","19653015"
"4","957","87285","87285","87285.0","19654125"
"4","958","87285","87285","87285.0","19655235"
"4","959","87285","87285","87285.0","19656345"
"4","960","87285","87285","87285.0","19657455"
"4","961","87285","87285","87285.0","19658565"
"4","962","87285","87285","87285.0","19659675"
"4","963","87285","87285","87285.0","19660785"
"4","964","87285","87285","87285.0","19661895"
"4","965","87285","87285","87285.0","19663005"
"4","966","87285","87285","87285.0","19664115"
"4","967","87285","87285","87285.0","19665225"
"4","968","87285","87285","87285.0","19666335"
"4","969","87285","87285","87285.0","19667445"
"4","970","87285","87285","87285.0","19668555"
"4","971","87285","87285","87285.0","19669665"
"4","972","87285","87285","87285.0","19670775"
"4","973","87285","87285","87285.0","19671885"
"4","974","87285","87285","87285.0","19672995"
"4","975","87285","87285","87285.0","19674105"
"4","976","87285","87285","87285.0","19675215"
"4","977","87285","87285","87285.0","19676325"
"4","978","87285","87285","87285.0","19677435"
"4","979","87285","87285","87285.0","19678545"
"4","980","87285","87285","87285.0","19679655"
"4","981","87285","87285","87285.0","19680765"
"4","982","87285","87285","87285.0","19681875"
"4","983","87285","87285","87285.0","19682985"
"4","984","87285","87285","87285.0","19684095"
"4","985","87285","87285","87285.0","19685205"
"4","986","87285","87285","87285.0","19686315"
"4","987","87285","87285","87285.0","19687425"
"4","988","87285","87285","87285.0","19688535"
"4","989","87285","87285","87285.0","19689645"
"4","990","87285","87285","87285.0","19690755"
"4","991","87285","87285","87285.0","19691865"
"4","992","87285","87285","87285.0","19692975"
"4","993","87285","87285","87285.0","19694085"
"4","994","87285","87285","87285.0","19695195"
"4","995","87285","87285","87285.0","19696305"
"4","996","87285","87285","87285.0","19697415"
"4","997","87285","87285","87285.0","19698525"
"4","998","87285","87285","87285.0","19699635"
"4","999","87285","87285","87285.0","19700745"
