"Run","Generation","Best Cost","Worst Cost","Average Cost","Number of evaluations"
"0","0","36743","48096","40620.22","35709"
"0","1","27603","34152","27710.059405940596","65664"
"1","0","37583","47661","44279.7","34680"
"1","1","27603","34175","27668.069306930694","55706"
"2","0","37313","48607","44325.02","35372"
"2","1","28084","30803","28123.039603960395","55542"
"2","2","28084","28084","28084.0","60774"
"2","3","28084","28084","28084.0","65466"
"2","4","27603","27603","27603.0","71736"
"3","0","37031","50505","43858.01","34662"
"3","1","28147","31113","28181.950495049507","58052"
"3","2","28147","28147","28147.0","62914"
"3","3","27603","27603","27603.0","70280"
"4","0","37901","47408","43710.74","35212"
"4","1","27603","33904","27721.90099009901","51628"
"5","0","39854","51148","45107.58","34692"
"5","1","27603","29759","27645.69306930693","57690"
"6","0","39142","49722","44407.25","34909"
"6","1","27603","30065","27651.752475247526","54959"
"7","0","39289","51208","45897.79","34290"
"7","1","27603","34796","27674.346534653465","59898"
"8","0","36250","49464","44086.36","35144"
"8","1","27603","31140","27642.663366336634","61594"
"9","0","38622","50133","45519.59","34867"
"9","1","27603","27740","27629.118811881188","58129"